{"count":4,"page":2,"page_size":3,"total_pages":2,"periods":[{"id":"2020-6","incidents":[{"id":"db633240","title":"Storage system is down","date":"2020-06-29T11:59:34.111Z","modified":"2020-10-16T15:31:32.762Z","scheduled":null,"severity":"major-outage","affectedsystems":["plex","media-factory"],"resolved":true,"content":"<p>The Storage server system board crashed, and the server won't go up. Replacement part are purchased and should be available soon.</p>\n<div class=\"update-block\">\n          <div class=\"update-block-date\">2020-07-01T12:00:00.000Z</div>\n          <div class=\"update-block-content\">\n            <div class=\"update-block-title\">Replacement parts arrived</div>\n            <div class=\"update-block-body\">\n<p>Replacement came, supplier sent a defective part and doesn't have any other one in stock.<br>\nA brand new server has been purchased today and should arrive in 3-5 days.</p>\n</div></div></div>\n<div class=\"update-block\">\n          <div class=\"update-block-date\">2020-07-04T12:00:00.000Z</div>\n          <div class=\"update-block-content\">\n            <div class=\"update-block-title\">Resolved</div>\n            <div class=\"update-block-body\">\n<p>A new motherboard came in and works fine. Storage system is up again.</p>\n</div></div></div>\n<!--- language code: en -->\n"},{"id":"02cf3462","title":"Requested contents are not available in Plex","date":"2020-06-27T15:00:32.461Z","modified":"2020-10-16T15:31:32.751Z","scheduled":null,"severity":"partial-outage","affectedsystems":["media-factory-osc"],"resolved":true,"content":"<p>We reached the maximum number of files allowed in a single Google Drive Enterprise shared folder, which can cause some content to be unavailable on Plex (while it is on Plex-OSC).<br>\nRemediations are in progress but could take some time.</p>\n<!--- language code: en -->\n"}],"order":5,"count":2}]}