{"count":4,"page":1,"page_size":3,"total_pages":2,"periods":[{"id":"2020-10","incidents":[{"id":"1ff751b7","title":"SSL Certificate expiration","date":"2020-10-15T08:43:54.550Z","modified":"2020-10-16T15:31:32.777Z","scheduled":null,"severity":"degraded-performance","affectedsystems":["media-req"],"resolved":false,"content":"<p>SSL Certificate have expired and cause errors on media-req platform.</p>\n<!--- language code: en -->\n"}],"order":1,"count":1},{"id":"2020-9","incidents":[{"id":"2a9ddaf7","title":"Rack maintenance","date":"2020-09-05T10:21:48.471Z","modified":"2020-10-16T15:31:32.775Z","scheduled":null,"severity":"under-maintenance","affectedsystems":["plex","media-factory"],"resolved":true,"content":"<p>Rack is being recabled and have wheels, which needs a complete shutdown to do so.</p>\n<!--- language code: en -->\n"},{"id":"c796ebac","title":"Collect router failure","date":"2020-09-01T10:20:00.207Z","modified":"2020-10-16T15:31:32.773Z","scheduled":null,"severity":"major-outage","affectedsystems":["plex","media-factory"],"resolved":true,"content":"<p>Hardware failure on collect router caused major network outage on all infrastructure.</p>\n<!--- language code: en -->\n"}],"order":2,"count":2},{"id":"2020-7","incidents":[{"id":"5d72ace6","title":"Electrical failure","date":"2020-07-22T14:20:00.091Z","modified":"2020-10-16T15:31:32.770Z","scheduled":null,"severity":"major-outage","affectedsystems":["plex","media-factory"],"resolved":true,"content":"<p>A power outage caused most servers to go down, then broke the measurement tool, causing the rest of the servers (on UPS) to also shutdown.</p>\n<!--- language code: en -->\n"},{"id":"688cc8e0","title":"Storage upgrade","date":"2020-07-11T10:00:00.010Z","modified":"2020-10-16T15:31:32.766Z","scheduled":null,"severity":"under-maintenance","affectedsystems":["plex","media-factory"],"resolved":true,"content":"<p>Storage server is upgraded to a more recent and performant one, causing downtime for Plex and Media Factory.</p>\n<!--- language code: en -->\n"}],"order":4,"count":2}]}